{
  "success": {
    "single": {
      "data": {
        "id": "usr_123",
        "type": "user",
        "attributes": {
          "name": "John Doe",
          "email": "john@example.com",
          "created_at": "2024-01-15T10:30:00Z"
        }
      }
    },
    "collection": {
      "data": [
        {
          "id": "usr_123",
          "type": "user",
          "attributes": { "name": "John" }
        }
      ],
      "meta": {
        "total": 100,
        "page": 1,
        "limit": 20,
        "total_pages": 5
      }
    },
    "created": {
      "data": {
        "id": "usr_456",
        "type": "user",
        "attributes": { "name": "Jane" }
      },
      "meta": {
        "message": "Resource created successfully"
      }
    },
    "no_content": {
      "meta": {
        "message": "Resource deleted successfully"
      }
    }
  },
  "error": {
    "standard": {
      "error": {
        "code": "RESOURCE_NOT_FOUND",
        "message": "The requested resource was not found",
        "request_id": "req_abc123"
      }
    },
    "validation": {
      "error": {
        "code": "VALIDATION_ERROR",
        "message": "Request validation failed",
        "details": [
          {
            "field": "email",
            "message": "Invalid email format"
          },
          {
            "field": "password",
            "message": "Must be at least 8 characters"
          }
        ]
      }
    },
    "authentication": {
      "error": {
        "code": "UNAUTHORIZED",
        "message": "Authentication required",
        " WWW-Authenticate": "Bearer realm=\"api\""
      }
    }
  }
}
